module gitlab.com/marceloeduardo244/go-finance

go 1.20

require (
	github.com/gin-gonic/gin v1.9.0
	github.com/lib/pq v1.10.7
	github.com/stretchr/testify v1.8.2
	go.uber.org/zap v1.24.0
	golang.org/x/crypto v0.7.0
)

require (
	github.com/beorn7/perks v1.0.1 // indirect
	github.com/bytedance/sonic v1.8.4 // indirect
	github.com/cespare/xxhash/v2 v2.2.0 // indirect
	github.com/chenzhuoyu/base64x v0.0.0-20221115062448-fe3a3abad311 // indirect
	github.com/gin-contrib/sse v0.1.0 // indirect
	github.com/go-playground/locales v0.14.1 // indirect
	github.com/go-playground/universal-translator v0.18.1 // indirect
	github.com/go-playground/validator/v10 v10.11.2 // indirect
	github.com/goccy/go-json v0.10.1 // indirect
	github.com/golang/protobuf v1.5.3 // indirect
	github.com/hashicorp/errwrap v1.1.0 // indirect
	github.com/hashicorp/go-multierror v1.1.1 // indirect
	github.com/json-iterator/go v1.1.12 // indirect
	github.com/klauspost/cpuid/v2 v2.2.4 // indirect
	github.com/leodido/go-urn v1.2.2 // indirect
	github.com/mattn/go-isatty v0.0.17 // indirect
	github.com/matttproud/golang_protobuf_extensions v1.0.4 // indirect
	github.com/modern-go/concurrent v0.0.0-20180306012644-bacd9c7ef1dd // indirect
	github.com/modern-go/reflect2 v1.0.2 // indirect
	github.com/pelletier/go-toml/v2 v2.0.7 // indirect
	github.com/prometheus/client_model v0.3.0 // indirect
	github.com/prometheus/common v0.42.0 // indirect
	github.com/prometheus/procfs v0.9.0 // indirect
	github.com/rs/cors v1.8.1 // indirect
	github.com/sirupsen/logrus v1.8.1 // indirect
	github.com/twitchyliquid64/golang-asm v0.15.1 // indirect
	github.com/ugorji/go/codec v1.2.11 // indirect
	go.uber.org/atomic v1.10.0 // indirect
	go.uber.org/multierr v1.10.0 // indirect
	golang.org/x/arch v0.3.0 // indirect
	golang.org/x/net v0.8.0 // indirect
	golang.org/x/sys v0.6.0 // indirect
	golang.org/x/text v0.8.0 // indirect
	google.golang.org/protobuf v1.30.0 // indirect
)

require (
	github.com/davecgh/go-spew v1.1.1 // indirect
	github.com/golang-jwt/jwt/v4 v4.5.0
	github.com/golang-migrate/migrate/v4 v4.15.2
	github.com/joho/godotenv v1.5.1
	github.com/pmezard/go-difflib v1.0.0 // indirect
	github.com/prometheus/client_golang v1.15.0
	github.com/rs/cors/wrapper/gin v0.0.0-20230301160956-5c2b877d2a03
	github.com/zsais/go-gin-prometheus v0.1.0
	gopkg.in/yaml.v3 v3.0.1 // indirect
)
